{
    "author": "Note: This is just a tonemapped preview, the exposure range in the HDR file is much greater.",
    "autoLoad": true,
    "autoRotate": -3,
    "hfov": 120,
    "keyboardZoom": false,
    "maxHfov": 130,
    "multiRes": {
        "cubeResolution": 2048,
        "extension": "jpg",
        "fallbackPath": "/fallback/%s",
        "maxLevel": 2,
        "path": "/%l/%s%y_%x",
        "tileResolution": 1024
    },
    "showFullscreenCtrl ": false,
    "type": "multires"
}