{
    "type": "multires",
    "autoLoad": true,
    "autoRotate": -3,
    "showFullscreenCtrl ": false,
    "keyboardZoom": false,
    "author": "Note: This is just a tonemapped preview, the exposure range in the HDR file is much greater.",
    "hfov": 120,
    "maxHfov": 130,
    
    "multiRes": {
        "path": "/%l/%s%y_%x",
        "fallbackPath": "/fallback/%s",
        "extension": "jpg",
        "tileResolution": 512,
        "maxLevel": 4,
        "cubeResolution": 2604
    }
}
